alembic==1.13.1
fastapi==0.110.0
psycopg2-binary==2.9.9
python-decouple==3.8
SQLAlchemy==2.0.29
uvicorn==0.29.0
requests==2.31.0
pydantic_partial==0.5.4
websockets==12.0
pyjwt==2.8.0
cryptography==42.0.5